{
    "/api/logins/*": {
        "target": "http://[::1]:8080",
        "secure": false,
        "changeOrigin": true,
        "logLevel": "debug"
    },
    "/api/*": {
        "target": "https://accounts.spotify.com",
        "secure": false,
        "changeOrigin": true,
        "logLevel": "debug"
    },
    "/relyingparty/*": {
        "target": "https://www.googleapis.com/identitytoolkit/v3",
        "secure": false,
        "changeOrigin": true,
        "logLevel": "debug"
    }

}